{
  "$schema": "./node_modules/nx/schemas/workspace-schema.json",
  "version": 2,
  "projects": {
    "surl-api": "apps/surl-api",
    "surl-web": "apps/surl-web",
    "surl-web-e2e": "apps/surl-web-e2e"
  }
}
