{
  "$schema": "../../node_modules/nx/schemas/project-schema.json",
  "sourceRoot": "apps/surl-web",
  "projectType": "application",
  "targets": {
    "build": {
      "executor": "@nrwl/next:build",
      "outputs": ["{options.outputPath}"],
      "defaultConfiguration": "production",
      "options": {
        "root": "apps/surl-web",
        "outputPath": "dist/apps/surl-web"
      },
      "configurations": {
        "development": {},
        "production": {}
      }
    },
    "serve": {
      "executor": "@nrwl/next:server",
      "defaultConfiguration": "development",
      "options": {
        "buildTarget": "surl-web:build",
        "dev": true
      },
      "configurations": {
        "development": {
          "buildTarget": "surl-web:build:development",
          "dev": true
        },
        "production": {
          "buildTarget": "surl-web:build:production",
          "dev": false
        }
      }
    },
    "export": {
      "executor": "@nrwl/next:export",
      "options": {
        "buildTarget": "surl-web:build:production"
      }
    },
    "test": {
      "executor": "@nrwl/jest:jest",
      "outputs": ["coverage/apps/surl-web"],
      "options": {
        "jestConfig": "apps/surl-web/jest.config.ts",
        "passWithNoTests": true
      }
    },
    "lint": {
      "executor": "@nrwl/linter:eslint",
      "outputs": ["{options.outputFile}"],
      "options": {
        "lintFilePatterns": ["apps/surl-web/**/*.{ts,tsx,js,jsx}"]
      }
    }
  },
  "tags": []
}
