{
  "$schema": "../../node_modules/nx/schemas/project-schema.json",
  "sourceRoot": "apps/surl-api/src",
  "projectType": "application",
  "targets": {
    "dev": {
      "executor": "@nxrocks/nx-quarkus:dev",
      "options": {
        "root": "apps/surl-api"
      }
    },
    "remoteDev": {
      "executor": "@nxrocks/nx-quarkus:remoteDev",
      "options": {
        "root": "apps/surl-api"
      }
    },
    "test": {
      "executor": "@nxrocks/nx-quarkus:test",
      "options": {
        "root": "apps/surl-api"
      }
    },
    "clean": {
      "executor": "@nxrocks/nx-quarkus:clean",
      "options": {
        "root": "apps/surl-api"
      }
    },
    "format": {
      "executor": "@nxrocks/nx-quarkus:format",
      "options": {
        "root": "apps/surl-api"
      }
    },
    "build": {
      "executor": "@nxrocks/nx-quarkus:build",
      "options": {
        "root": "apps/surl-api"
      }
    },
    "package": {
      "executor": "@nxrocks/nx-quarkus:package",
      "options": {
        "root": "apps/surl-api"
      }
    },
    "addExtension": {
      "executor": "./tools/executors/quarkus-add-extension:add-extension",
      "options": {
        "root": "apps/surl-api"
      }
    },
    "listExtensions": {
      "executor": "./tools/executors/quarkus-list-extensions:list-extensions",
      "options": {
        "root": "apps/surl-api"
      }
    }
  },
  "tags": []
}
